{
  "type": "anvil_crushing_recipes:anvil_crushing",
  "block_ingredient": [
    {"block": "minecraft:barrel"},
    {"block": "minecraft:chest"},
    {"block": "minecraft:trapped_chest"},
    {"tag": "minecraft:shulker_boxes"}
  ]
}