{
  "type": "anvil_crushing_recipes:anvil_crushing",
  "ingredients": [
    { "block_ingredient": { "block": "minecraft:iron_bars" } },
    { "block_ingredient": { "block": "minecraft:iron_bars" } },
    { "block_ingredient": { "block": "minecraft:iron_bars" } },
    { "block_ingredient": { "block": "minecraft:torch" } }
  ],
  "ingredient_drop_chance": 0,
  "block_output": "minecraft:lantern"
}