{
  "type": "anvil_crushing_recipes:anvil_crushing",
  "block_ingredient": [
    {"block": "lever"},
    {"block": "redstone_torch"},
    {"block": "tripwire_hook"},
    {"block": "comparator"},
    {"block": "repeater"},
    {"block": "redstone_wire"},

    {"tag": "rails"},
    {"tag": "stone_pressure_plates"},
    {"tag": "wooden_pressure_plates"},
    {"tag": "buttons"}
  ]
}