{
  "type": "anvil_crushing_recipes:anvil_crushing",
  "block_ingredient": [
    {"block": "minecraft:grass_block"},
    {"block": "minecraft:podzol"},
    {"block": "minecraft:mycelium"},
    {"block": "minecraft:farmland"}
  ],
  "block_output": "minecraft:dirt"
}